*** Life<Cell> 3x8 ***

Generation = 0, Population = 2.
--------
-0----0-
--------

Generation = 59, Population = 6.
0------0
-1.--.1-
0------0

*** Life<Cell> 6x6 ***

Generation = 0, Population = 23.
-000-0
-00000
--0000
0-0--0
0-0000
---00-

Generation = 69, Population = 5.
-*-...
*.*...
-**...
...-..
......
......

*** Life<Cell> 1x7 ***

Generation = 0, Population = 7.
0000000

Generation = 16, Population = 0.
-------

Generation = 32, Population = 0.
-------

Generation = 48, Population = 0.
-------

Generation = 64, Population = 0.
-------

Generation = 80, Population = 0.
-------

Generation = 96, Population = 0.
-------

Generation = 112, Population = 0.
-------

Generation = 128, Population = 0.
-------

Generation = 144, Population = 0.
-------

Generation = 160, Population = 0.
-------

*** Life<Cell> 3x2 ***

Generation = 0, Population = 6.
00
00
00

*** Life<Cell> 4x5 ***

Generation = 0, Population = 13.
0-0-0
000-0
00--0
-0-00

Generation = 96, Population = 0.
.-.-.
.....
.....
....-

*** Life<Cell> 4x5 ***

Generation = 0, Population = 20.
00000
00000
00000
00000

*** Life<Cell> 3x8 ***

Generation = 0, Population = 21.
00000000
00000000
0-0--000

*** Life<Cell> 8x6 ***

Generation = 0, Population = 24.
000-00
--0-0-
0-0-0-
-000--
0-00-0
----0-
--0-0-
--0000

*** Life<Cell> 7x1 ***

Generation = 0, Population = 7.
0
0
0
0
0
0
0

*** Life<Cell> 8x10 ***

Generation = 0, Population = 47.
-0-00-000-
-0---0---0
0-00-00-00
0000-00-00
---0-0-0-0
0-00-0-0--
00000000--
0--00--000

*** Life<Cell> 1x6 ***

Generation = 0, Population = 6.
000000

Generation = 4, Population = 2.
--11--

Generation = 8, Population = 0.
.-..-.

Generation = 12, Population = 0.
.-..-.

Generation = 16, Population = 0.
.-..-.

*** Life<Cell> 7x6 ***

Generation = 0, Population = 34.
000000
00--00
000000
000-00
00-000
-0-0-0
00-000

*** Life<Cell> 9x2 ***

Generation = 0, Population = 16.
00
00
00
00
-0
0-
00
00
00

*** Life<Cell> 7x2 ***

Generation = 0, Population = 14.
00
00
00
00
00
00
00

*** Life<Cell> 3x3 ***

Generation = 0, Population = 8.
0-0
000
000

*** Life<Cell> 5x9 ***

Generation = 0, Population = 1.
---------
---------
---------
0--------
---------

*** Life<Cell> 7x2 ***

Generation = 0, Population = 9.
00
00
00
0-
-0
--
-0

Generation = 140, Population = 5.
--
..
1-
..
*-
**
*-

*** Life<Cell> 1x4 ***

Generation = 0, Population = 4.
0000

*** Life<Cell> 4x7 ***

Generation = 0, Population = 28.
0000000
0000000
0000000
0000000

Generation = 2, Population = 14.
-*---*-
*-000-*
*-000-*
-*---*-

Generation = 4, Population = 10.
-*-*-*-
.1---1.
.1---1.
-*-*-*-

Generation = 6, Population = 20.
1*1*1*1
*--*--*
*--*--*
1*1*1*1

Generation = 8, Population = 4.
-.-.-.-
*--.--*
*--.--*
-.-.-.-

Generation = 10, Population = 12.
-.-.-.-
**0.0**
**0.0**
-.-.-.-

Generation = 12, Population = 16.
-**.**-
*.0.0.*
*.0.0.*
-**.**-

Generation = 14, Population = 12.
-*...*-
*.0.0.*
*.0.0.*
-*...*-

*** Life<Cell> 2x7 ***

Generation = 0, Population = 13.
0000000
0000-00

Generation = 131, Population = 8.
**..**.
**..*-0

*** Life<Cell> 3x2 ***

Generation = 0, Population = 6.
00
00
00

*** Life<Cell> 9x5 ***

Generation = 0, Population = 38.
000--
00000
-0-00
0000-
00-00
00000
00000
0-000
00000

Generation = 144, Population = 8.
.....
.....
..**.
.*..*
.*..*
..**.
.....
.....
.....

*** Life<Cell> 10x2 ***

Generation = 0, Population = 19.
00
00
-0
00
00
00
00
00
00
00

Generation = 55, Population = 7.
-*
**
-*
-*
**
..
..
..
..
..

*** Life<Cell> 4x10 ***

Generation = 0, Population = 32.
0000000000
-0-0000-00
000--00-00
00000-0-00

*** Life<Cell> 8x7 ***

Generation = 0, Population = 8.
---0---
-------
---0---
--0----
0-0----
-0-----
-------
0-----0

Generation = 89, Population = 8.
.......
....**.
....**.
.......
....**.
....**.
.......
-......

*** Life<Cell> 1x2 ***

Generation = 0, Population = 2.
00

Generation = 136, Population = 0.
..

*** Life<Cell> 1x6 ***

Generation = 0, Population = 6.
000000

*** Life<Cell> 8x1 ***

Generation = 0, Population = 8.
0
0
0
0
0
0
0
0

Generation = 81, Population = 0.
.
-
.
.
.
.
-
.

*** Life<Cell> 8x8 ***

Generation = 0, Population = 41.
-0-0000-
00---000
0-00-0-0
0000-000
0-00000-
-----000
00--000-
--00000-

Generation = 45, Population = 8.
-.......
.**.....
.**.....
........
........
........
.**.....
.**.....

Generation = 90, Population = 8.
-.......
.**.....
.**.....
........
........
........
.**.....
.**.....

*** Life<Cell> 5x6 ***

Generation = 0, Population = 15.
00--00
00--00
-0-0--
-0---0
-0-00-

Generation = 171, Population = 1.
1.....
-.....
......
....-.
-.....

*** Life<Cell> 10x9 ***

Generation = 0, Population = 42.
0---0--0-
0--0000--
000-000--
----0-0--
-0----00-
00-00-0--
0000--00-
0-----00-
00-0-0000
-0-----0-

*** Life<Cell> 7x1 ***

Generation = 0, Population = 7.
0
0
0
0
0
0
0

Generation = 31, Population = 0.
-
-
-
-
-
-
-

Generation = 62, Population = 0.
-
-
-
-
-
-
-

Generation = 93, Population = 0.
-
-
-
-
-
-
-

Generation = 124, Population = 0.
-
-
-
-
-
-
-

Generation = 155, Population = 0.
-
-
-
-
-
-
-

*** Life<Cell> 4x10 ***

Generation = 0, Population = 34.
--00000000
00-0000000
0-000-0000
000000-000

*** Life<Cell> 8x7 ***

Generation = 0, Population = 5.
0------
-0-----
------0
-------
--0----
-------
-------
-0-----

*** Life<Cell> 7x6 ***

Generation = 0, Population = 21.
-----0
-000-0
--0-00
-0--0-
00--00
00-0-0
-000--

*** Life<Cell> 2x3 ***

Generation = 0, Population = 6.
000
000

*** Life<Cell> 9x9 ***

Generation = 0, Population = 46.
----000-0
-0-00-0-0
-0000--0-
0-0---000
-00000--0
-000-000-
00000---0
-00-0---0
--000-0-0

Generation = 97, Population = 7.
...**....
...**....
.........
.........
.........
***......
.........
.........
.........

*** Life<Cell> 7x5 ***

Generation = 0, Population = 26.
0-0-0
00-00
--000
00000
000-0
00-00
-00-0

*** Life<Cell> 7x6 ***

Generation = 0, Population = 2.
------
------
0-----
---0--
------
------
------

Generation = 61, Population = 9.
-0----
0-0-0-
-0----
--0---
-----0
0-----
-0----

Generation = 122, Population = 10.
----0-
-0-0--
--0---
-0-0-0
----0-
-0-0--
------

*** Life<Cell> 3x8 ***

Generation = 0, Population = 9.
000-000-
0-------
-0----0-

Generation = 179, Population = 3.
..**....
..*--.--
...-...-

*** Life<Cell> 6x7 ***

Generation = 0, Population = 12.
00--0--
--0---0
-0----0
--0----
---0---
0---00-

Generation = 71, Population = 0.
.......
.......
.......
.......
.......
.......

*** Life<Cell> 5x9 ***

Generation = 0, Population = 35.
00---0-0-
000000000
000000--0
00-000000
-0000000-

Generation = 30, Population = 18.
.**......
...*.*...
*....**..
*...*****
.***...**

Generation = 60, Population = 0.
.........
.........
.........
.........
.........

*** Life<Cell> 9x3 ***

Generation = 0, Population = 25.
000
000
000
000
0-0
00-
000
000
000

*** Life<Cell> 8x10 ***

Generation = 0, Population = 49.
0-000-00-0
---00-0--0
00-0000000
0-00--000-
--00-0-00-
00---00000
--000-0--0
000-0--00-

*** Life<Cell> 4x7 ***

Generation = 0, Population = 24.
0000-00
00000--
0000000
0-00000

*** Life<Cell> 3x1 ***

Generation = 0, Population = 3.
0
0
0

Generation = 85, Population = 0.
-
-
-

*** Life<Cell> 4x5 ***

Generation = 0, Population = 20.
00000
00000
00000
00000

*** Life<Cell> 1x9 ***

Generation = 0, Population = 9.
000000000

Generation = 13, Population = 2.
1-------1

Generation = 26, Population = 2.
-0-----0-

Generation = 39, Population = 4.
1-0---0-1

Generation = 52, Population = 2.
---0-0---

Generation = 65, Population = 2.
--0---0--

Generation = 78, Population = 4.
-0-0-0-0-

Generation = 91, Population = 2.
1-------1

Generation = 104, Population = 2.
-0-----0-

Generation = 117, Population = 4.
1-0---0-1

Generation = 130, Population = 2.
---0-0---

Generation = 143, Population = 2.
--0---0--

Generation = 156, Population = 4.
-0-0-0-0-

Generation = 169, Population = 2.
1-------1

*** Life<Cell> 2x4 ***

Generation = 0, Population = 8.
0000
0000

*** Life<Cell> 4x6 ***

Generation = 0, Population = 23.
00000-
000000
000000
000000

Generation = 42, Population = 0.
......
......
......
......

*** Life<Cell> 9x2 ***

Generation = 0, Population = 14.
-0
00
-0
00
00
00
00
00
--

Generation = 29, Population = 3.
..
**
*-
..
..
..
..
..
..

Generation = 58, Population = 3.
..
**
*-
..
..
..
..
..
..

Generation = 87, Population = 3.
..
**
*-
..
..
..
..
..
..

*** Life<Cell> 7x2 ***

Generation = 0, Population = 14.
00
00
00
00
00
00
00

*** Life<Cell> 5x6 ***

Generation = 0, Population = 27.
000000
-00000
000000
000000
-000-0

*** Life<Cell> 5x6 ***

Generation = 0, Population = 19.
-00000
0--00-
-00---
000000
0---00

*** Life<Cell> 5x4 ***

Generation = 0, Population = 16.
0000
00-0
-000
--00
0000

*** Life<Cell> 4x2 ***

Generation = 0, Population = 7.
00
00
00
0-

Generation = 96, Population = 1.
--
..
1-
..

Generation = 192, Population = 1.
--
..
1-
..

*** Life<Cell> 6x6 ***

Generation = 0, Population = 31.
000000
-00000
-00000
000000
00-00-
-00000

*** Life<Cell> 2x4 ***

Generation = 0, Population = 8.
0000
0000

Generation = 86, Population = 0.
-..-
-..-

*** Life<Cell> 8x7 ***

Generation = 0, Population = 8.
-00-0--
-------
-------
-------
00-----
-----0-
0------
--0----

*** Life<Cell> 9x6 ***

Generation = 0, Population = 22.
-0---0
------
-00-00
-0--0-
-0-000
0-0--0
00-0--
-0-00-
--0---

*** Life<Cell> 4x5 ***

Generation = 0, Population = 20.
00000
00000
00000
00000

Generation = 158, Population = 0.
-...-
.-.-.
.-.-.
-...-

*** Life<Cell> 7x8 ***

Generation = 0, Population = 13.
-----0--
0----00-
-----00-
0--0----
0-------
0-0----0
---0----

*** Life<Cell> 3x7 ***

Generation = 0, Population = 19.
0000000
00-0000
0-00000

Generation = 17, Population = 4.
.1-...-
.....**
......1

*** Life<Cell> 5x2 ***

Generation = 0, Population = 10.
00
00
00
00
00

Generation = 84, Population = 0.
..
..
..
..
..

*** Life<Cell> 3x5 ***

Generation = 0, Population = 15.
00000
00000
00000

Generation = 11, Population = 2.
-.-.-
1---1
-.-.-

Generation = 22, Population = 6.
1.-.1
-0-0-
1.-.1

*** Life<Cell> 6x3 ***

Generation = 0, Population = 3.
-0-
-0-
---
0--
---
---

*** Life<Cell> 7x10 ***

Generation = 0, Population = 34.
-0-0--0--0
--0--0---0
-00000--0-
-0-----0-0
----0000-0
--000--000
-0-000-000

Generation = 188, Population = 3.
-.........
..........
..........
..........
..........
***.......
..........

*** Life<Cell> 4x2 ***

Generation = 0, Population = 8.
00
00
00
00

*** Life<Cell> 5x5 ***

Generation = 0, Population = 18.
0000-
0000-
0--00
--000
00-00

Generation = 85, Population = 1.
-1...
...-.
...--
--...
...-.

Generation = 170, Population = 1.
1-...
...-.
...--
--...
...-.

*** Life<Cell> 7x7 ***

Generation = 0, Population = 42.
00-0--0
0000000
-00-000
0-00000
0000000
0000000
000000-

Generation = 108, Population = 7.
.......
.......
.......
....**.
....*.*
......*
.....**

*** Life<Cell> 8x8 ***

Generation = 0, Population = 33.
0-------
000000-0
-000-0-0
0-----0-
0-0-0--0
00-0--0-
0--00000
--0-0-00

Generation = 36, Population = 4.
...-....
-....**.
.....**.
........
........
........
........
-.....-.

Generation = 72, Population = 4.
...-....
-....**.
.....**.
........
........
........
........
-.....-.

*** Life<Cell> 5x3 ***

Generation = 0, Population = 12.
000
-00
00-
-00
000

*** Life<Cell> 10x3 ***

Generation = 0, Population = 27.
000
000
000
000
-00
000
0-0
000
000
00-

*** Life<Cell> 5x1 ***

Generation = 0, Population = 5.
0
0
0
0
0

*** Life<Cell> 5x7 ***

Generation = 0, Population = 27.
000000-
0000000
000-000
00--00-
-00-0-0

Generation = 135, Population = 1.
......-
.......
.......
......1
......-

*** Life<Cell> 2x3 ***

Generation = 0, Population = 6.
000
000

*** Life<Cell> 2x6 ***

Generation = 0, Population = 9.
0000-0
0--000

Generation = 10, Population = 6.
*...**
...01*

Generation = 20, Population = 4.
...**.
...**.

Generation = 30, Population = 4.
...**.
...**.

Generation = 40, Population = 4.
...**.
...**.

Generation = 50, Population = 4.
...**.
...**.

Generation = 60, Population = 4.
...**.
...**.

Generation = 70, Population = 4.
...**.
...**.

Generation = 80, Population = 4.
...**.
...**.

Generation = 90, Population = 4.
...**.
...**.

Generation = 100, Population = 4.
...**.
...**.

Generation = 110, Population = 4.
...**.
...**.

Generation = 120, Population = 4.
...**.
...**.

Generation = 130, Population = 4.
...**.
...**.

Generation = 140, Population = 4.
...**.
...**.

Generation = 150, Population = 4.
...**.
...**.

Generation = 160, Population = 4.
...**.
...**.

*** Life<Cell> 8x10 ***

Generation = 0, Population = 60.
0-0-0---00
00000--0-0
0000000-00
0000000000
00--00-0--
0000---000
00-000000-
000000000-

*** Life<Cell> 8x6 ***

Generation = 0, Population = 44.
000000
000000
-0-000
000000
000000
00-000
-00000
000000

*** Life<Cell> 9x2 ***

Generation = 0, Population = 17.
00
00
00
00
00
0-
00
00
00

*** Life<Cell> 8x7 ***

Generation = 0, Population = 47.
0000000
00000-0
0000000
-000-00
-000000
0-000-0
0000-00
--00000

Generation = 126, Population = 0.
.......
.......
.......
.......
.......
.......
......-
.......

*** Life<Cell> 7x5 ***

Generation = 0, Population = 1.
----0
-----
-----
-----
-----
-----
-----

Generation = 52, Population = 6.
0-0--
-----
0-0--
-----
0-0--
-----
-----

Generation = 104, Population = 2.
0-0--
-----
-----
-----
-----
-----
-----

Generation = 156, Population = 6.
0-0--
-----
0-0--
-----
0-0--
-----
-----

*** Life<Cell> 9x1 ***

Generation = 0, Population = 5.
0
0
0
-
-
0
-
0
-

Generation = 24, Population = 1.
1
-
.
-
.
.
.
.
.

Generation = 48, Population = 1.
1
-
.
-
.
.
.
.
.

*** Life<Cell> 4x7 ***

Generation = 0, Population = 26.
0000000
00000-0
00000-0
0000000

*** Life<Cell> 9x7 ***

Generation = 0, Population = 48.
0000000
-00-0-0
0000-00
0-0000-
0000-0-
000000-
00-00--
00-0000
000-0-0

*** Life<Cell> 10x5 ***

Generation = 0, Population = 35.
000-0
0-0-0
---00
0-000
000-0
00000
0--00
-0000
00000
0----

*** Life<Cell> 8x1 ***

Generation = 0, Population = 8.
0
0
0
0
0
0
0
0

Generation = 59, Population = 0.
.
-
.
.
.
.
-
.

*** Life<Cell> 7x7 ***

Generation = 0, Population = 28.
00---00
--0000-
0000-00
-000---
0--000-
0--00--
0--0-00

*** Life<Cell> 3x1 ***

Generation = 0, Population = 1.
-
-
0

*** Life<Cell> 10x9 ***

Generation = 0, Population = 20.
-00---0--
---------
-0------0
00-00----
-00-00--0
00-------
-------0-
--------0
--------0
0--------

*** Life<Cell> 8x2 ***

Generation = 0, Population = 16.
00
00
00
00
00
00
00
00

Generation = 20, Population = 0.
..
..
..
..
..
..
..
..

*** Life<Cell> 3x1 ***

Generation = 0, Population = 3.
0
0
0

Generation = 39, Population = 0.
-
-
-

Generation = 78, Population = 0.
-
-
-

Generation = 117, Population = 0.
-
-
-

Generation = 156, Population = 0.
-
-
-

*** Life<Cell> 7x5 ***

Generation = 0, Population = 32.
00--0
0-000
00000
00000
00000
00000
00000

Generation = 164, Population = 3.
.....
.....
..**.
..-*.
.....
.....
.....

*** Life<Cell> 9x10 ***

Generation = 0, Population = 43.
--0--00---
-0-0000--0
-00-0---0-
-0-00-0---
0--0--00-0
-00-0-0-0-
-000--000-
-00--0000-
-0----0-00

*** Life<Cell> 8x8 ***

Generation = 0, Population = 6.
--------
----0---
-0------
--------
00------
--0-----
--------
--0-----

*** Life<Cell> 5x7 ***

Generation = 0, Population = 31.
000-000
000-000
-000000
0000000
-000000

Generation = 196, Population = 4.
....-.-
...-...
.......
..**...
..**..-

*** Life<Cell> 2x8 ***

Generation = 0, Population = 11.
0--000-0
0000-0-0

Generation = 25, Population = 8.
**...-0*
**....**

Generation = 50, Population = 8.
**...1-*
**....**

Generation = 75, Population = 8.
**...-0*
**....**

*** Life<Cell> 6x6 ***

Generation = 0, Population = 16.
--0--0
-----0
---000
-0--00
0-00--
-0000-

*** Life<Cell> 9x2 ***

Generation = 0, Population = 18.
00
00
00
00
00
00
00
00
00

Generation = 14, Population = 0.
..
..
..
..
..
..
..
..
..

Generation = 28, Population = 0.
..
..
..
..
..
..
..
..
..

Generation = 42, Population = 0.
..
..
..
..
..
..
..
..
..

Generation = 56, Population = 0.
..
..
..
..
..
..
..
..
..

Generation = 70, Population = 0.
..
..
..
..
..
..
..
..
..

Generation = 84, Population = 0.
..
..
..
..
..
..
..
..
..

Generation = 98, Population = 0.
..
..
..
..
..
..
..
..
..

Generation = 112, Population = 0.
..
..
..
..
..
..
..
..
..

Generation = 126, Population = 0.
..
..
..
..
..
..
..
..
..

*** Life<Cell> 1x10 ***

Generation = 0, Population = 10.
0000000000

*** Life<Cell> 3x1 ***

Generation = 0, Population = 3.
0
0
0

Generation = 155, Population = 0.
-
-
-

*** Life<Cell> 7x5 ***

Generation = 0, Population = 16.
-0-0-
--0--
00000
0----
0--0-
00--0
--00-

*** Life<Cell> 10x5 ***

Generation = 0, Population = 19.
0----
00--0
--00-
--0--
-----
--0--
00-00
0---0
0-00-
--00-

*** Life<Cell> 10x5 ***

Generation = 0, Population = 41.
00000
00---
00000
000-0
00000
0000-
0000-
00-00
-0000
0-000

*** Life<Cell> 10x8 ***

Generation = 0, Population = 48.
00--0--0
-00-00-0
000---00
-00000--
000-----
-00---00
-0--0000
0-00000-
0-0--000
-000000-

Generation = 19, Population = 33.
...***..
.******0
**-**.*.
.**.*...
.*-..*..
.*...1..
.......*
..***..*
.*....*.
-****...

Generation = 38, Population = 6.
........
...*....
...*....
......**
......**
........
........
........
........
........

Generation = 57, Population = 4.
........
........
........
......**
......**
........
........
........
........
........

Generation = 76, Population = 4.
........
........
........
......**
......**
........
........
........
........
........

Generation = 95, Population = 4.
........
........
........
......**
......**
........
........
........
........
........

Generation = 114, Population = 4.
........
........
........
......**
......**
........
........
........
........
........